{
    "homepage": "https://crystalmark.info/ja/software/crystalmarkretro/",
    "description": "CrystalMark Retro is a comprehensive benchmarking software that supports 32bit (x86), 64bit (x64/ARM64), many-core, and multilingual (48+ languages).",
    "version": "2.0.0",
    "license": "MIT",
    "url": "https://sourceforge.net/projects/crystalmarkretro/files/2.0.0Beta2/CrystalMarkRetro2_0_0Beta2Src_VS2022.zip",
    "hash": "md5:389f72fb1491ed556fe03122721e0f34",
    "architecture": {
        "64bit": {
            "bin": [
                [
                    "CrystalMarkRetro64B.exe",
                    "MarkRetroB"
                ]
            ],
            "shortcuts": [
                [
                    "CrystalMarkRetro64B.exe",
                    "CrystalMarkRetro Beta2Src_VS2022 Edition"
                ]
            ]
        },
        "32bit": {
            "bin": [
                [
                    "CrystalMarkRetro32B.exe",
                    "MarkRetroB"
                ]
            ],
            "shortcuts": [
                [
                    "CrystalMarkRetro32B.exe",
                    "CrystalMarkRetro Beta2Src_VS2022 Edition"
                ]
            ]
        },
        "arm64": {
            "bin": [
                [
                    "CrystalMarkRetroA64B.exe",
                    "MarkRetroB"
                ]
            ],
            "shortcuts": [
                [
                    "CrystalMarkRetroA64B.exe",
                    "CrystalMarkRetro Beta2Src_VS2022 Edition"
                ]
            ]
        }
    }
}
