{
    "homepage": "https://crystalmark.info/ja/software/crystalmarkretro/",
    "description": "CrystalMark Retro is a comprehensive benchmarking software that supports 32bit (x86), 64bit (x64/ARM64), many-core, and multilingual (48+ languages).",
    "version": "2.0.0",
    "license": "MIT",
    "url": "https://sourceforge.net/projects/crystalmarkretro/files/2.0.0Beta2/CrystalMarkRetro2_0_0Beta2Aoi.zip",
    "hash": "md5:12d25ac75b22467678f2e67436b377eb",
    "architecture": {
        "64bit": {
            "bin": [
                [
                    "CrystalMarkRetro64B.exe",
                    "MarkRetroB"
                ]
            ],
            "shortcuts": [
                [
                    "CrystalMarkRetro64B.exe",
                    "CrystalMarkRetro Beta2Aoi Edition"
                ]
            ]
        },
        "32bit": {
            "bin": [
                [
                    "CrystalMarkRetro32B.exe",
                    "MarkRetroB"
                ]
            ],
            "shortcuts": [
                [
                    "CrystalMarkRetro32B.exe",
                    "CrystalMarkRetro Beta2Aoi Edition"
                ]
            ]
        },
        "arm64": {
            "bin": [
                [
                    "CrystalMarkRetroA64B.exe",
                    "MarkRetroB"
                ]
            ],
            "shortcuts": [
                [
                    "CrystalMarkRetroA64B.exe",
                    "CrystalMarkRetro Beta2Aoi Edition"
                ]
            ]
        }
    }
}
